{
  "current": {
    "favicon": "shopify:\/\/shop_images\/pebble_crane-favicon_98b9d2e0-6cd2-4d7c-b559-9ab36276b2e4.png",
    "show_scroll_top_button": false,
    "container_width": 1400,
    "container_fluid_width": 1400,
    "container_fluid_offset": 80,
    "color_primary": "#7aaad5",
    "color_field_bg": "#d2d2d2",
    "color_body_text": "#181b25",
    "color_heading_text": "#181b25",
    "color_sub_text": "#181b25",
    "color_text_link": "#2c3658",
    "color_btn_bg": "#56749f",
    "color_btn_bg_hover": "#2c3658",
    "product_title_color": "#181b25",
    "prod_sale_price_color": "#7aaad5",
    "prod_regular_price_color": "#56749f",
    "prod_type_color": "#181b25",
    "prod_desc_color": "#181b25",
    "color_annoucement_bg": "#eaf2f9",
    "color_annoucement_text": "#2c3658",
    "color_topbar_bg": "#ffffff",
    "color_topbar_text": "#2c3658",
    "color_header_bg": "#ffffff",
    "color_header_link": "#2c3658",
    "color_header_transparent": "#2c3658",
    "bg_cart_wishlist_count": "#56749f",
    "color_menu_bar_bg": "#f8f8f8",
    "color_menu_bar_text": "#2c3658",
    "color_footer_bg": "#2c3658",
    "color_footer_text": "#ffffff",
    "color_footer_subtext": "#fff",
    "color_footer_link": "#f5f5f5",
    "color_footer_link_hover": "#7aaad5",
    "color_footer_bg_mb": "#2c3658",
    "color_footer_bottom_bg": "#2c3658",
    "color_footer_bottom_text": "#fff",
    "color_footer_bottom_bg_mb": "#2c3658",
    "color_border": "rgba(0,0,0,0)",
    "img_overlay_bg": "#181b25",
    "img_overlay_opacity": 20,
    "tooltip_background_color": "#d2d2d2",
    "tooltip_text_color": "#2c3658",
    "type_base_font": "avenir_next_n4",
    "use_custom_font_body": false,
    "custom_body_font": "https:\/\/cdn.shopify.com\/s\/files\/1\/0561\/2742\/2636\/files\/Jost-Regular.ttf?v=1618297125@400\nhttps:\/\/cdn.shopify.com\/s\/files\/1\/0561\/2742\/2636\/files\/Jost-Medium.ttf?v=1618297125@500\nhttps:\/\/cdn.shopify.com\/s\/files\/1\/0561\/2742\/2636\/files\/Jost-SemiBold.ttf?v=1618297125@600",
    "custom_body_weight": "300",
    "type_base_size": 15,
    "type_base_line_height": 20,
    "type_header_font": "poppins_n5",
    "use_custom_font_heading": false,
    "custom_heading_font": "https:\/\/cdn.shopify.com\/s\/files\/1\/0561\/2742\/2636\/files\/Jost-Regular.ttf?v=1618297125@400\nhttps:\/\/cdn.shopify.com\/s\/files\/1\/0561\/2742\/2636\/files\/Jost-Medium.ttf?v=1618297125@500\nhttps:\/\/cdn.shopify.com\/s\/files\/1\/0561\/2742\/2636\/files\/Jost-SemiBold.ttf?v=1618297125@600",
    "custom_heading_weight": "400",
    "type_header_base_size": 22,
    "btn_uppercase_text": false,
    "btn_base_size": 14,
    "btn_border_radius": 0,
    "btn_line_height": 18,
    "btn_weight": "500",
    "pcard_layout": "1",
    "pcard_alignment": "left",
    "pcard_image_ratio": "1\/1",
    "show_swatch_option": true,
    "pcard_option_design": "image",
    "on_sale_badge": "hide",
    "show_badge_sale": true,
    "show_badge_soldout": false,
    "show_cart_button": false,
    "show_quickview_button": true,
    "show_compare_button": false,
    "show_vendor": false,
    "show_review_badge": true,
    "uppercase_prd_name": false,
    "variant_option_design_default": "default",
    "variant_option_design1": "button",
    "variant_option_design2": "default",
    "variant_option_design3": "color",
    "product_colors": "red: #FF6961,\nyellow: #FDDA76,\nblack: #000000,\nblack band: #000000,\nblue: #8DB4D2,\ngreen: #C1E1C1,\npurple: #B19CD9,\nsilver: #EEEEEF,\nwhite: #FFFFFF,\nbrown: #836953,\nlight brown: #B5651D,\ndark turquoise: #23cddc,\norange: #FFB347,\ntan: #E9D1BF,\nviolet: #B490B0,\npink: #FFD1DC,\ngrey: #E0E0E0,\nsky: #96BDC6,\npale leaf: #CCD4BF,\nlight blue: #b1c5d4,\ndark grey: #aca69f,\nbeige: #EBE6DB,\nbeige band: #EED9C4,\ndark blue: #063e66,\ncream: #FFFFCC,\nlight pink: #FBCFCD,\nmint: #bedce3,\ndark gray: #3A3B3C,\nrosy brown: #c4a287,\nlight grey:#D3D3D3,\ncopper: #B87333,\nrose gold: #ECC5C0,\nnight blue: #151B54,\ncoral: #FF7F50,\nlight purple: #C6AEC7",
    "filter_color1": "Gingham",
    "filter_color2": "flannel",
    "article_show_date": false,
    "article_show_excerpt": true,
    "article_show_button": true,
    "share_facebook": false,
    "share_twitter": false,
    "share_pinterest": false,
    "contact_email": "hello@pebbleandcrane.com",
    "social_twitter_link": "",
    "social_twitter_label": "",
    "social_facebook_link": "https:\/\/facebook.com\/pebbleandcrane",
    "social_facebook_label": "Facebook",
    "social_pinterest_link": "",
    "social_pinterest_label": "",
    "social_instagram_link": "https:\/\/instagram.com\/pebbleandcrane",
    "social_instagram_label": "Instagram",
    "cart_notes_enable": false,
    "discount_code_enable": false,
    "cart_estimate_shipping": false,
    "show_free_shipping": false,
    "cart_free_shipping": "750",
    "search_by_tag": true,
    "popular_search_queries": "Bedroom, Dining Room, Living Room",
    "wishlist_page": "wishlist",
    "show_cookie_consent": false,
    "cookie_consent_learnmore": "",
    "cookie_consent_learnmore_link": "",
    "cookie_consent_placement": "bottom-left",
    "cookie_consent_theme": "white",
    "custom_css": ".sf-topbar {\n  border-color: #eee;\n}\n[id$=\"16225125199f82d8fe\"] .section-my {\n  padding-top: 45px;\n  padding-bottom: 45px;\n  margin-bottom: 0;\n  margin-top: 0;\n}\n[id$=\"16225125199f82d8fe\"] {\n  border-top: 1px solid #eee;\n}\n.sf__font-normal {\n  font-weight: 400;\n}\n[id$=\"16225316461d1cff80\"]\n  .collection-card__info\n  h3\n  a {\n  font-weight: 400;\n  font-size: 24px;\n  line-height: 34px;\n  margin-bottom: 4px;\n}\n[id$=\"16225316461d1cff80\"]\n  .collection-card__info\n  p {\n  color: #666;\n}\n[id$=\"16225125199f82d8fe\"] .sf-icon-box__text h3 {\n  line-height: 26px;\n  font-size: 20px;\n  font-weight: 500;\n}\n@media (min-width: 1536px) {\n  [id$=\"1621243260e1af0c20\"] .slide__block-title {\n    font-size: 100px;\n    line-height: 95px;\n  }\n}\n@media (max-width: 576px) {\n  [id$=\"1621243260e1af0c20\"] a.sf__mobile-button,\n  [id$=\"162251092958fcda7c\"] .sf__btn-primary,\n  [id$=\"162251092958fcda7c\"] .sf__btn-secondary {\n    width: 100%;\n  }\n  [id$=\"16225316461d1cff80\"] .section__heading {\n    text-align: center;\n  }\n  [id$=\"16225316461d1cff80\"]\n    .collection-card__info\n    h3\n    a {\n    font-weight: 500;\n  }\n  [id$=\"16225316461d1cff80\"]\n    .collection-card__info\n    p {\n    font-size: 14px;\n    line-height: 20px;\n  }\n  [id$=\"16225125199f82d8fe\"] .sf-icon-box__text h3 {\n    font-size: 18px;\n    margin-bottom: 2px;\n  }\n}",
    "checkout_logo_image": "shopify:\/\/shop_images\/PC-Logo-Footer-400px_6d67a697-6236-458d-946b-842d50076de5.png",
    "show_variant_swatch_image": true,
    "bg_cart_count": "#da3f3f",
    "sections": {
      "header": {
        "type": "header",
        "blocks": {
          "5e153016-a9d7-46c9-a10e-30d16446793d": {
            "type": "topbar",
            "disabled": true,
            "settings": {
              "show_divider": true,
              "show_phone_numb": false,
              "show_email": false,
              "show_social_links": true,
              "show_stores_page": false,
              "show_currency_switcher": true,
              "show_language_switcher": false,
              "alert_message": "<span>New Collection |  <a class=\"sf__text-link  ml-1 underline\" href=\"#\">Discover More<\/a><span><\/span><\/span>"
            }
          },
          "5b9aec5f-b955-4765-9a87-1962d613e909": {
            "type": "custom_html",
            "settings": {
              "heading": "Home",
              "container": "container",
              "html": ""
            }
          },
          "a820a1bc-dfc4-4e61-8c8a-de23659759a6": {
            "type": "banner",
            "settings": {
              "heading": "Furniture",
              "container": "container-fluid",
              "banner_style": "outside",
              "banner_image": "shopify:\/\/shop_images\/Rattan_Bar_Cart_2.jpg",
              "banner_link": "shopify:\/\/products\/rattan-bar-cart",
              "banner_title": "Rattan Bar Cart",
              "banner_desc": "Serve up something delicious",
              "banner_button_text": "Shop Now"
            }
          },
          "31481022-f698-4968-bf06-3c24f36b09e7": {
            "type": "product-list",
            "settings": {
              "heading": "Products",
              "container": "container-fluid",
              "stretch_width": false,
              "collection": "best-sellers",
              "limit": 6,
              "columns": 2
            }
          },
          "ea723308-92c0-42ae-a45d-aede426d8cdd": {
            "type": "custom_html",
            "settings": {
              "heading": "Features",
              "container": "inherit",
              "html": ""
            }
          },
          "283e0cf5-8bd1-4c67-b549-ad0dbdc0d475": {
            "type": "bloglist",
            "disabled": true,
            "settings": {
              "heading": "",
              "container": "inherit",
              "blog": ""
            }
          }
        },
        "block_order": [
          "5e153016-a9d7-46c9-a10e-30d16446793d",
          "5b9aec5f-b955-4765-9a87-1962d613e909",
          "a820a1bc-dfc4-4e61-8c8a-de23659759a6",
          "31481022-f698-4968-bf06-3c24f36b09e7",
          "ea723308-92c0-42ae-a45d-aede426d8cdd",
          "283e0cf5-8bd1-4c67-b549-ad0dbdc0d475"
        ],
        "settings": {
          "header_design": "logo-center__2l",
          "container": "container-fluid",
          "header_sticky": true,
          "transparent_on_top": false,
          "logo_text": "Pebble & Crane",
          "logo": "shopify:\/\/shop_images\/Pebble_and_Crane-Logo-Color_67b78f52-c6d3-475e-9642-ca2d2271b5a6.png",
          "logo_max_width": 210,
          "sticky_logo_max_width": 210,
          "mobile_logo_max_width": 130,
          "main_menu": "main-menu-by-room",
          "secondary_menu": "",
          "mobile_menu": "",
          "uppercase_parent_level": false,
          "search": "show_full",
          "show_account_icon": true,
          "show_cart_icon": true,
          "show_wishlist_icon": true,
          "show_compare_icon": false,
          "show_currency_switcher": false,
          "show_language_switcher": false
        }
      },
      "footer": {
        "type": "footer",
        "blocks": {
          "7ebc2f78-975b-4a81-b874-103c3355a866": {
            "type": "menu",
            "settings": {
              "menu": "footer-shop",
              "title": "Shop",
              "width": "16%"
            }
          },
          "49e72833-c68f-4a7b-ab64-3ef0cae99bcb": {
            "type": "menu",
            "settings": {
              "menu": "footer-col-1",
              "title": "Info",
              "width": "16%"
            }
          },
          "99685df0-4ccb-4645-8f3a-e04338e149a9": {
            "type": "menu",
            "settings": {
              "menu": "footer-col-2",
              "title": "Contact",
              "width": "16%"
            }
          },
          "7b0bf4c6-3873-4222-b8d6-ce009e710078": {
            "type": "newsletter",
            "settings": {
              "title": "Subscribe",
              "description": "Sign up for exclusive offers and product launches. (Plus, new subscribers receive a special offer!)",
              "email_placeholder": "Enter your email",
              "form_style": "minimal",
              "show_social": false,
              "width": "50%"
            }
          }
        },
        "block_order": [
          "7ebc2f78-975b-4a81-b874-103c3355a866",
          "49e72833-c68f-4a7b-ab64-3ef0cae99bcb",
          "99685df0-4ccb-4645-8f3a-e04338e149a9",
          "7b0bf4c6-3873-4222-b8d6-ce009e710078"
        ],
        "settings": {
          "design": "footer-2",
          "container": "container-fluid",
          "bordered": false,
          "copyright": "",
          "show_currency_selector": true,
          "show_language_selector": false,
          "show_social_links": true,
          "show_payment_icons": true,
          "payment_icons_width": 300
        }
      },
      "annoucement": {
        "type": "annoucement",
        "settings": {
          "show_announcement": true,
          "homepage_only": false,
          "show_close": false,
          "message": "<span style=\"font-size:12px; font-weight:500; letter-spacing:1px;padding-right:2em;\">Free shipping on orders $750+<\/span> | <span style=\"font-size:12px; font-weight:500;letter-spacing:1px;padding-right:2em;padding-left:2em;\"><a href=\"\/collections\/swatch-samples\">Order free swatches →<\/a><\/span>",
          "message_link": "",
          "show_divider": true
        }
      },
      "mobile-sticky-bar": {
        "type": "mobile-sticky-bar",
        "settings": {
          "show_mobile_sticky": false,
          "show_home_icon": true,
          "show_collection_icon": false,
          "show_cart_icon": true,
          "show_search_icon": true,
          "show_account_icon": false,
          "show_wishlist_icon": true
        }
      }
    },
    "content_for_index": [],
    "blocks": {
      "7570552984445421165": {
        "type": "shopify:\/\/apps\/yotpo-product-reviews-photos\/blocks\/settings\/eb7dfd7d-db44-4334-bc49-c893b51b36cf",
        "disabled": false,
        "settings": {}
      }
    }
  }
}