{
  "shop": {
    "custom_links": [],
    "settings": {
      "active_continue_shopping_underlined": true,
      "curved": false,
      "empty_cart": "<p class=\"ql-align-center\">Your cart is empty, for now.<\/p>",
      "active_continue_shopping_button": true,
      "count_compare_at": true,
      "show_coupon_alert_text": true,
      "multiCurrencyMode": true,
      "open_cart": true,
      "theme": {
        "secondary": {
          "a": 1,
          "r": 215,
          "b": 255,
          "g": 222
        },
        "background": {
          "a": 1,
          "r": 255,
          "b": 255,
          "g": 255
        },
        "primary": {
          "a": 1,
          "r": 90,
          "b": 248,
          "g": 117
        }
      },
      "scary": {
        "border": {
          "a": 1,
          "r": 161,
          "b": 255,
          "g": 178
        },
        "hours": 0,
        "isSecondsActive": true,
        "minutes": 4,
        "isHoursActive": true,
        "isActive": false,
        "isMinutesActive": true,
        "seconds": 49,
        "endAction": "hide",
        "background": {
          "a": 1,
          "r": 240,
          "b": 255,
          "g": 242
        },
        "days": 0,
        "style": "rounded",
        "text": {
          "color": {
            "a": 1,
            "r": 86,
            "b": 159,
            "g": 116
          },
          "font_size": 0.7,
          "text": "🔥 Your cart is reserved for... {{timer}} minutes"
        },
        "placement": "bottom",
        "textAlignement": "left",
        "isDaysActive": false
      },
      "is_checkout_condition_active": false,
      "announcement": {
        "border": {
          "a": 1,
          "r": 80,
          "b": 194,
          "g": 277
        },
        "background": {
          "a": 0.22,
          "r": 80,
          "b": 194,
          "g": 277
        },
        "style": "full",
        "text": {
          "color": {
            "a": 1,
            "r": 0,
            "b": 79,
            "g": 102
          },
          "font_size": 0.7,
          "text": "⏰ Order before your items are out of stock!"
        },
        "position": "bellow_products",
        "textAlignement": "center",
        "isActive": false
      },
      "product": {
        "grow": true,
        "title": {
          "font_weight": 400,
          "text": "{{product_title}}",
          "color": {
            "a": 1,
            "r": 44,
            "b": 88,
            "g": 54
          },
          "font_size": 1
        },
        "image_size": 75,
        "price": {
          "font_weight": 400,
          "text": "{{original_price}}{{product_price}}",
          "color": {
            "a": 0.75,
            "r": 24,
            "b": 37,
            "g": 27
          },
          "font_size": 1
        },
        "sold_out": "Sold Out"
      },
      "checkout_condition_color": {
        "a": 1,
        "r": 90,
        "b": 248,
        "g": 117
      },
      "afterPay": {
        "image": "https:\/\/s3-us-west-2.amazonaws.com\/apps.static.resources\/afterpay_black.png",
        "splits": 4,
        "text": {
          "font_weight": 700,
          "text": "Or {{installments}} installments of {{split payment}} with",
          "color": {
            "a": 1,
            "r": 22,
            "b": 67,
            "g": 37
          },
          "font_size": 0.8
        },
        "isExternal": false,
        "isActive": false
      },
      "active": true,
      "rtl": false,
      "default_language": "english",
      "checkout_condition_text": "<p>I agree to <strong>Terms &amp; conditions<\/strong><\/p>",
      "continue_shopping_button": {
        "font_weight": 500,
        "text": "Continue shopping",
        "color": {
          "a": 1,
          "r": 86,
          "b": 159,
          "g": 116
        },
        "font_size": 1
      },
      "modules": {
        "order_note": {
          "active": false,
          "text": "<p> <strong>Add a note to your order<\/strong><\/p>"
        },
        "checkout_button": {
          "hoverBackground": {
            "a": 1,
            "r": 44,
            "b": 88,
            "g": 54
          },
          "active_continue_shopping_underlined": true,
          "use_coupon_code": {
            "color": {
              "a": 1,
              "r": 160,
              "b": 160,
              "g": 160
            },
            "font_size": 0.9,
            "text": "Coupon code"
          },
          "coupon": {
            "hoverBackground": {
              "a": 1,
              "r": 215,
              "b": 255,
              "g": 222
            },
            "active_background": {
              "a": 1,
              "r": 90,
              "b": 248,
              "g": 117
            },
            "background": {
              "a": 1,
              "r": 122,
              "b": 213,
              "g": 170
            },
            "active_color": {
              "a": 1,
              "r": 215,
              "b": 255,
              "g": 222
            }
          },
          "active_continue_shopping_button": false,
          "apply_coupon_code": {
            "color": {
              "a": 1,
              "r": 255,
              "b": 255,
              "g": 255
            },
            "font_size": 1,
            "text": "Apply"
          },
          "continue_shopping_button": {
            "color": {
              "a": 1,
              "r": 86,
              "b": 159,
              "g": 116
            },
            "font_size": 1,
            "text": "Continue shopping"
          },
          "background": {
            "a": 1,
            "r": 86,
            "b": 159,
            "g": 116
          },
          "enter_coupon_code": {
            "color": {
              "a": 1,
              "r": 122,
              "b": 213,
              "g": 170
            },
            "font_size": 0.9,
            "text": "Enter Coupon Code"
          },
          "subtotal": {
            "font_weight": 400,
            "text": "Subtotal",
            "color": {
              "a": 1,
              "r": 24,
              "b": 37,
              "g": 27
            },
            "font_size": 1
          },
          "button_text_loading": {
            "color": {
              "a": 1,
              "r": 255,
              "b": 255,
              "g": 255
            },
            "text": "Continue to Checkout"
          },
          "button_text": {
            "font_weight": 500,
            "text": "Continue to Checkout",
            "color": {
              "a": 1,
              "r": 255,
              "b": 255,
              "g": 255
            },
            "font_size": 1.2
          },
          "edit_coupon_code": {
            "font_size": 0.9,
            "text": "Edit"
          },
          "savings": {
            "font_weight": 400,
            "text": "Savings",
            "color": {
              "a": 1,
              "r": 86,
              "b": 159,
              "g": 116
            },
            "font_size": 1
          },
          "coupon_alert_text": {
            "color": {
              "a": 1,
              "r": 239,
              "b": 68,
              "g": 68
            },
            "font_size": 1,
            "text": "Code overrides offers"
          },
          "close_coupon_code": {
            "font_size": 0.9,
            "text": "Close"
          }
        },
        "random_text": {
          "active": false,
          "text": "<p class=\"ql-align-center\">100% NO-RISK MONEY BACK GUARANTEE<\/p>"
        },
        "order": [
          "checkout_button",
          "random_text",
          "order_note"
        ]
      },
      "badges": {
        "isActive": false,
        "value": "<p class=\"ql-align-center\">Guaranteed Safe &amp; Secure Checkout<\/p>",
        "position": "bellow_checkout"
      },
      "sticky_cart": {
        "btn_style": "square",
        "desktop_quantity": {
          "text": "Quantity"
        },
        "desktop_active": true,
        "mobile_show_variants": true,
        "desktop_show_product_name": true,
        "isActive": false,
        "atc_action": "checkout",
        "desktop_visibility": "dynamic",
        "mobile_show_compared_price": true,
        "mobile_active": true,
        "mobile_quantity": {
          "text": "Quantity"
        },
        "desktop_location": "bottom",
        "btn_text": "Add To Cart",
        "btn_text_variant_active": "CONFIRM",
        "btn_atc_txt_variant_active": "Choose size",
        "btn_text_unavailable": "UNAVAILABLE",
        "mobile_atc_height": {
          "text": "50"
        },
        "cart_name": {
          "text": "Add To Cart"
        },
        "mobile_show_quantity": true,
        "desktop_show_quantity": true,
        "btn_color": {
          "a": 1,
          "r": 90,
          "b": 248,
          "g": 117
        },
        "txt_color": {
          "a": 1,
          "r": 255,
          "b": 255,
          "g": 255
        },
        "desktop_show_variants": true,
        "background_color": {
          "a": 1,
          "r": 255,
          "b": 255,
          "g": 255
        },
        "mobile_show_title": true,
        "mobile_visibility": "dynamic",
        "desktop_product_preview": true,
        "mobile_show_price": true,
        "mobile_location": "bottom",
        "show_btn_atc_txt_variant_active": false,
        "desktop_show_compared_price": true
      },
      "show_coupon": true,
      "header": {
        "title": {
          "font_weight": 400,
          "text": "Your Cart",
          "color": {
            "a": 1,
            "r": 44,
            "b": 88,
            "g": 54
          },
          "font_size": 1.4
        },
        "background": {
          "a": 1,
          "r": 244,
          "b": 244,
          "g": 244
        }
      },
      "product_details": {
        "external": false,
        "atcButton": {
          "color": {
            "a": 1,
            "r": 255,
            "b": 255,
            "g": 255
          },
          "font_size": 1,
          "text": "Add To Cart"
        },
        "truncate": true,
        "atcButton_background": {
          "a": 1,
          "r": 64,
          "b": 178,
          "g": 84
        },
        "atcButton_hoverBackground": {
          "a": 1,
          "r": 206,
          "b": 206,
          "g": 206
        },
        "readMore": {
          "color": {
            "a": 1,
            "r": 64,
            "b": 178,
            "g": 84
          },
          "font_size": 1,
          "text": "Read More"
        },
        "truncate_length": 200
      },
      "cod_settings": {
        "is_form_in_cart": false,
        "error_message": "This field is required",
        "checkout_mode": "cod_and_checkout",
        "is_active": false,
        "checkout_button": {
          "hoverBackground": {
            "a": 1,
            "r": 215,
            "b": 255,
            "g": 222
          },
          "text": "PAY ON DELIVERY",
          "color": {
            "a": 1,
            "r": 255,
            "b": 255,
            "g": 255
          },
          "background": {
            "a": 1,
            "r": 90,
            "b": 248,
            "g": 117
          },
          "font_size": 1.7
        },
        "form": [
          {
            "isRequired": true,
            "label": "First name",
            "placeholder": "Please enter your full name",
            "type": "name"
          },
          {
            "isRequired": false,
            "label": "Email",
            "placeholder": "Please enter your email",
            "type": "email"
          },
          {
            "isRequired": true,
            "label": "Phone number",
            "placeholder": "Please enter your phone number",
            "type": "phone"
          },
          {
            "isRequired": true,
            "label": "Address",
            "placeholder": "Please enter your address",
            "type": "string"
          },
          {
            "isRequired": false,
            "label": "Note to seller",
            "placeholder": "Please enter your a custome note",
            "type": "textarea"
          }
        ],
        "confirm_button": {
          "hoverBackground": {
            "a": 1,
            "r": 215,
            "b": 255,
            "g": 222
          },
          "text": "Confirm Order",
          "color": {
            "a": 1,
            "r": 255,
            "b": 255,
            "g": 255
          },
          "background": {
            "a": 1,
            "r": 90,
            "b": 248,
            "g": 117
          },
          "font_size": 1.7
        },
        "loading_button": {
          "hoverBackground": {
            "a": 1,
            "r": 215,
            "b": 255,
            "g": 222
          },
          "text": "Loading ...",
          "color": {
            "a": 1,
            "r": 255,
            "b": 255,
            "g": 255
          },
          "background": {
            "a": 1,
            "r": 90,
            "b": 248,
            "g": 117
          },
          "font_size": 1.7
        }
      },
      "font": {
        "color": {
          "a": 1,
          "r": 22,
          "b": 67,
          "g": 37
        },
        "size": 14,
        "family": "Poppins:100,100italic,200,200italic,300,300italic,regular,italic,500,500italic,600,600italic,700,700italic,800,800italic,900,900italic",
        "custom": false
      }
    }
  },
  "all_campaigns": {
    "a3b4fe8d-1bad-41a2-8dcf-a6a8132b4024": {
      "settings": {
        "one_check_up_sell": {
          "highlight": {
            "a": 1,
            "r": 90,
            "b": 248,
            "g": 117
          },
          "is_ticked_by_default": false,
          "include_in_atu": true,
          "product": {},
          "product_type": "existing",
          "truncate": true,
          "text": "<p>🔥 Add {{title}} For {{price}}<\/p>",
          "truncate_length": 25
        },
        "type": "add_to_unlock",
        "applied_discount_title": "Special Discount",
        "modules": {
          "order_note": {
            "active": false,
            "text": "<p><strong>Add a note to your order<\/strong><\/p>"
          },
          "random_text": {
            "active": false,
            "text": "<p class=\"ql-align-center\"><span style=\"color: rgb(22, 37, 67);\">Guaranteed Safe &amp; Secure Checkout<\/span><\/p>"
          },
          "order": [
            "checkout_button",
            "random_text",
            "order_note"
          ]
        },
        "bundles": {
          "color": {
            "a": 1,
            "r": 22,
            "b": 67,
            "g": 37
          },
          "activeColor": {
            "a": 1,
            "r": 255,
            "b": 255,
            "g": 255
          },
          "prefix": "{{individual_price}} each",
          "background": {
            "a": 1,
            "r": 215,
            "b": 255,
            "g": 222
          },
          "font_size": 0.8,
          "activeBackground": {
            "a": 1,
            "r": 90,
            "b": 248,
            "g": 117
          },
          "text": "Buy {{quantity}} save {{discount}}",
          "list": [
            {
              "reward": 10,
              "quantity": 2,
              "id": "d52f8480-5f7b-11ec-9586-0d037f2eecbb",
              "type": "percentage"
            },
            {
              "reward": 15,
              "quantity": 3,
              "id": "d52f8481-5f7b-11ec-9586-0d037f2eecbb",
              "type": "percentage"
            }
          ]
        },
        "add_to_unlock": {
          "recommendation_type": "shopify_recommendation",
          "show_product_details": {
            "font_weight": 500,
            "text": "Show Details",
            "color": {
              "a": 1,
              "r": 86,
              "b": 159,
              "g": 116
            },
            "font_size": 0.7
          },
          "multi_goal_type": "amount",
          "progress_secondary": {
            "a": 1,
            "r": 234,
            "b": 249,
            "g": 242
          },
          "borderColor": {
            "a": 1,
            "r": 244,
            "b": 244,
            "g": 244
          },
          "upsell_confirm_button": {
            "font_weight": 500,
            "font_size": 0.8,
            "text": "Confirm"
          },
          "product_price": {
            "font_weight": 300,
            "text": "only {{product_price}}",
            "color": {
              "a": 1,
              "r": 22,
              "b": 67,
              "g": 37
            },
            "font_size": 0.9
          },
          "products_length": 3,
          "title": {
            "font_weight": 500,
            "text": "More for your home",
            "color": {
              "a": 1,
              "r": 22,
              "b": 67,
              "g": 37
            },
            "font_size": 1
          },
          "isActive": true,
          "exclude_tags": [],
          "separator": {
            "active": false,
            "text": "OR"
          },
          "product_title": {
            "font_weight": 500,
            "text": "{{product_title}}",
            "color": {
              "a": 1,
              "r": 22,
              "b": 67,
              "g": 37
            },
            "font_size": 1
          },
          "progress_background": {
            "a": 1,
            "r": 255,
            "b": 255,
            "g": 255
          },
          "products": [],
          "upsell_add_button": {
            "font_weight": 500,
            "text": "Add To Cart",
            "color": {
              "a": 1,
              "r": 86,
              "b": 159,
              "g": 116
            },
            "font_size": 0.8
          },
          "show_suggestions": true,
          "progress_complete": {
            "a": 1,
            "r": 126,
            "b": 73,
            "g": 180
          },
          "background": {
            "a": 1,
            "r": 244,
            "b": 244,
            "g": 244
          },
          "progress_primary": {
            "a": 1,
            "r": 219,
            "b": 67,
            "g": 240
          },
          "show_all_locked_goals": false,
          "product_details": {
            "external": true,
            "atcButton": {
              "font_weight": 600,
              "text": "Add To Cart",
              "color": {
                "a": 1,
                "r": 255,
                "b": 255,
                "g": 255
              },
              "font_size": 1
            },
            "truncate": true,
            "atcButton_background": {
              "a": 1,
              "r": 86,
              "b": 159,
              "g": 116
            },
            "atcButton_hoverBackground": {
              "a": 1,
              "r": 206,
              "b": 206,
              "g": 206
            },
            "readMore": {
              "color": {
                "a": 1,
                "r": 86,
                "b": 159,
                "g": 116
              },
              "font_size": 1,
              "text": "Read More"
            },
            "truncate_length": 200
          },
          "goals": [
            {
              "show_goal_text": false,
              "goal_type": "fixed",
              "confetti": false,
              "goal": 750,
              "reward_type": "free_shipping",
              "free_shipping": {
                "manual": true,
                "before": "<p class=\"ql-align-center\">Add <strong>{{amount_left}}<\/strong> to get <strong>free shipping<\/strong><\/p>",
                "after": "<p class=\"ql-align-center\"><img src=\"https:\/\/media.giphy.com\/media\/1wX5TJZPqVw3HhyDYn\/giphy.gif\"> You've unlocked <strong>free shipping!<\/strong><\/p>"
              },
              "discount": {
                "reward": 10,
                "after": "<p class=\"ql-align-center\"><img src=\"https:\/\/media.giphy.com\/media\/1wX5TJZPqVw3HhyDYn\/giphy.gif\"> You've unlocked <strong>{{reward}}<\/strong> off<\/p>",
                "type": "percentage",
                "before": "<p class=\"ql-align-center\">Add <strong>{{amount_left}}<\/strong> to unlock <strong>{{reward}}<\/strong> off<\/p>"
              },
              "goal_text": {
                "color": {
                  "a": 1,
                  "r": 44,
                  "b": 59,
                  "g": 50
                },
                "font_size": 0.7,
                "text": "Free Shipping"
              },
              "confetti_length": 400,
              "manual": {
                "before": "<p class='ql-align-center'><img src='https:\/\/www.amabattery.co.za\/wpimages\/wp4cb45f10.gif'>  Add <b>{{amount_left}}<\/b> to get <b>free shipping<\/b><p>",
                "after": "<p class='ql-align-center'><img src='https:\/\/media.giphy.com\/media\/1wX5TJZPqVw3HhyDYn\/giphy.gif'> You've unlocked <b>Free shipping!<\/b><p>"
              }
            }
          ]
        }
      },
      "target": {
        "ids": [
          "6696821260467",
          "6696932049075",
          "6696877752499",
          "6696875655347",
          "6696843641011",
          "6696916779187",
          "6696851636403",
          "6696929231027",
          "6696926609587",
          "6975522472115"
        ],
        "countries": {
          "include_active": true,
          "include": [
            "US"
          ],
          "exclude": [],
          "exclude_active": false
        },
        "type": "specific_products",
        "selected": [
          {
            "image": "https:\/\/cdn.shopify.com\/s\/files\/1\/0570\/3198\/3283\/products\/Concorde_DiningChair_OakWhite_BlackLeather_2.jpg?v=1640023918",
            "handle": "oak-arm-chair",
            "id": "6696821260467",
            "title": "Oak Arm Chair"
          },
          {
            "image": "https:\/\/cdn.shopify.com\/s\/files\/1\/0570\/3198\/3283\/products\/1_9d93e0e6-8cc6-48fd-ab23-f34dfa9e4c4e.jpg?v=1640019808",
            "handle": "oak-bar-stool",
            "id": "6696932049075",
            "title": "Oak Bar Stool"
          },
          {
            "image": "https:\/\/cdn.shopify.com\/s\/files\/1\/0570\/3198\/3283\/products\/1_2c23d1f5-183c-4ae8-b51b-d7c2016cc4f4.jpg?v=1640011611",
            "handle": "oak-coffee-table",
            "id": "6696877752499",
            "title": "Oak Coffee Table"
          },
          {
            "image": "https:\/\/cdn.shopify.com\/s\/files\/1\/0570\/3198\/3283\/products\/30317-006AlaskaDiningChairOakWhiteOilBlackLeatherBali7004-01.jpg?v=1628012751",
            "handle": "oak-dining-chair",
            "id": "6696875655347",
            "title": "Oak Dining Chair (Set of 2)"
          },
          {
            "image": "https:\/\/cdn.shopify.com\/s\/files\/1\/0570\/3198\/3283\/products\/1.jpg?v=1621282393",
            "handle": "oak-media-cabinet",
            "id": "6696843641011",
            "title": "Oak Media Cabinet"
          },
          {
            "image": "https:\/\/cdn.shopify.com\/s\/files\/1\/0570\/3198\/3283\/products\/1_2358eaab-5e91-40fd-b3c6-a09e5b3142ee.jpg?v=1639406459",
            "handle": "oak-rocking-chair",
            "id": "6696916779187",
            "title": "Oak Rocking Chair"
          },
          {
            "image": "https:\/\/cdn.shopify.com\/s\/files\/1\/0570\/3198\/3283\/products\/ProductImage3.jpg?v=1621282510",
            "handle": "rattan-bar-cart",
            "id": "6696851636403",
            "title": "Rattan Bar Cart"
          },
          {
            "image": "https:\/\/cdn.shopify.com\/s\/files\/1\/0570\/3198\/3283\/products\/RattanCoffeeTable1.jpg?v=1621286448",
            "handle": "rattan-coffee-table",
            "id": "6696929231027",
            "title": "Rattan Coffee Table"
          },
          {
            "image": "https:\/\/cdn.shopify.com\/s\/files\/1\/0570\/3198\/3283\/products\/RattanSideTable1.jpg?v=1621286000",
            "handle": "rattan-side-table",
            "id": "6696926609587",
            "title": "Rattan Side Table"
          },
          {
            "image": "https:\/\/cdn.shopify.com\/s\/files\/1\/0570\/3198\/3283\/products\/Standmirror_silo.jpg?v=1636411689",
            "handle": "sungkai-floor-mirror",
            "id": "6975522472115",
            "title": "Sungkai Floor Mirror"
          }
        ]
      },
      "updatedAt": "1645541241853"
    },
    "93032204-040e-4afd-921e-9c3e35427aca": {
      "settings": {
        "one_check_up_sell": {
          "highlight": {
            "a": 1,
            "r": 90,
            "b": 248,
            "g": 117
          },
          "is_ticked_by_default": false,
          "include_in_atu": true,
          "product": {},
          "product_type": "existing",
          "truncate": true,
          "text": "<p>🔥 Add {{title}} For {{price}}<\/p>",
          "truncate_length": 25
        },
        "type": "add_to_unlock",
        "applied_discount_title": "Special Discount",
        "modules": {
          "order_note": {
            "active": false,
            "text": "<p><strong>Add a note to your order<\/strong><\/p>"
          },
          "random_text": {
            "active": false,
            "text": "<p class=\"ql-align-center\"><span style=\"color: rgb(22, 37, 67);\">Guaranteed Safe &amp; Secure Checkout<\/span><\/p>"
          },
          "order": [
            "checkout_button",
            "random_text",
            "order_note"
          ]
        },
        "bundles": {
          "color": {
            "a": 1,
            "r": 22,
            "b": 67,
            "g": 37
          },
          "activeColor": {
            "a": 1,
            "r": 255,
            "b": 255,
            "g": 255
          },
          "prefix": "{{individual_price}} each",
          "background": {
            "a": 1,
            "r": 215,
            "b": 255,
            "g": 222
          },
          "font_size": 0.8,
          "activeBackground": {
            "a": 1,
            "r": 90,
            "b": 248,
            "g": 117
          },
          "text": "Buy {{quantity}} save {{discount}}",
          "list": [
            {
              "reward": 10,
              "quantity": 2,
              "id": "d52f8480-5f7b-11ec-9586-0d037f2eecbb",
              "type": "percentage"
            },
            {
              "reward": 15,
              "quantity": 3,
              "id": "d52f8481-5f7b-11ec-9586-0d037f2eecbb",
              "type": "percentage"
            }
          ]
        },
        "add_to_unlock": {
          "recommendation_type": "shopify_recommendation",
          "show_product_details": {
            "font_weight": 500,
            "text": "Show Details",
            "color": {
              "a": 1,
              "r": 86,
              "b": 159,
              "g": 116
            },
            "font_size": 0.7
          },
          "multi_goal_type": "amount",
          "progress_secondary": {
            "a": 1,
            "r": 234,
            "b": 249,
            "g": 242
          },
          "borderColor": {
            "a": 1,
            "r": 244,
            "b": 244,
            "g": 244
          },
          "upsell_confirm_button": {
            "font_weight": 500,
            "font_size": 0.8,
            "text": "Confirm"
          },
          "product_price": {
            "font_weight": 300,
            "text": "only {{product_price}}",
            "color": {
              "a": 1,
              "r": 22,
              "b": 67,
              "g": 37
            },
            "font_size": 0.9
          },
          "products_length": 3,
          "title": {
            "font_weight": 500,
            "text": "More for your home",
            "color": {
              "a": 1,
              "r": 22,
              "b": 67,
              "g": 37
            },
            "font_size": 1
          },
          "isActive": true,
          "exclude_tags": [],
          "separator": {
            "active": false,
            "text": "OR"
          },
          "product_title": {
            "font_weight": 500,
            "text": "{{product_title}}",
            "color": {
              "a": 1,
              "r": 22,
              "b": 67,
              "g": 37
            },
            "font_size": 1
          },
          "progress_background": {
            "a": 1,
            "r": 255,
            "b": 255,
            "g": 255
          },
          "products": [],
          "upsell_add_button": {
            "font_weight": 500,
            "text": "Add To Cart",
            "color": {
              "a": 1,
              "r": 86,
              "b": 159,
              "g": 116
            },
            "font_size": 0.8
          },
          "show_suggestions": true,
          "progress_complete": {
            "a": 1,
            "r": 126,
            "b": 73,
            "g": 180
          },
          "background": {
            "a": 1,
            "r": 244,
            "b": 244,
            "g": 244
          },
          "progress_primary": {
            "a": 1,
            "r": 219,
            "b": 67,
            "g": 240
          },
          "show_all_locked_goals": false,
          "product_details": {
            "external": true,
            "atcButton": {
              "font_weight": 600,
              "text": "Add To Cart",
              "color": {
                "a": 1,
                "r": 255,
                "b": 255,
                "g": 255
              },
              "font_size": 1
            },
            "truncate": true,
            "atcButton_background": {
              "a": 1,
              "r": 86,
              "b": 159,
              "g": 116
            },
            "atcButton_hoverBackground": {
              "a": 1,
              "r": 206,
              "b": 206,
              "g": 206
            },
            "readMore": {
              "color": {
                "a": 1,
                "r": 86,
                "b": 159,
                "g": 116
              },
              "font_size": 1,
              "text": "Read More"
            },
            "truncate_length": 200
          },
          "goals": [
            {
              "show_goal_text": false,
              "goal_type": "fixed",
              "confetti": false,
              "goal": 1,
              "reward_type": "free_shipping",
              "free_shipping": {
                "manual": true,
                "before": "<p class=\"ql-align-center\">Add <strong>{{amount_left}}<\/strong> to get <strong>free shipping<\/strong><\/p>",
                "after": "<p class=\"ql-align-center\"><img src=\"https:\/\/media.giphy.com\/media\/1wX5TJZPqVw3HhyDYn\/giphy.gif\"> You've unlocked <strong>free shipping!<\/strong><\/p>"
              },
              "discount": {
                "reward": 10,
                "after": "<p class=\"ql-align-center\"><img src=\"https:\/\/media.giphy.com\/media\/1wX5TJZPqVw3HhyDYn\/giphy.gif\"> You've unlocked <strong>{{reward}}<\/strong> off<\/p>",
                "type": "percentage",
                "before": "<p class=\"ql-align-center\">Add <strong>{{amount_left}}<\/strong> to unlock <strong>{{reward}}<\/strong> off<\/p>"
              },
              "goal_text": {
                "color": {
                  "a": 1,
                  "r": 44,
                  "b": 59,
                  "g": 50
                },
                "font_size": 0.7,
                "text": "Free Shipping"
              },
              "confetti_length": 400,
              "manual": {
                "before": "<p class='ql-align-center'><img src='https:\/\/www.amabattery.co.za\/wpimages\/wp4cb45f10.gif'>  Add <b>{{amount_left}}<\/b> to get <b>free shipping<\/b><p>",
                "after": "<p class='ql-align-center'><img src='https:\/\/media.giphy.com\/media\/1wX5TJZPqVw3HhyDYn\/giphy.gif'> You've unlocked <b>Free shipping!<\/b><p>"
              }
            }
          ]
        }
      },
      "target": {
        "ids": [
          "6696849572019",
          "7058508153011",
          "7058508742835",
          "7058508415155",
          "6935341433011",
          "6696920383667",
          "6696912584883",
          "6696837316787",
          "6696847179955",
          "7058506678451",
          "6696926609587",
          "6987130536115"
        ],
        "countries": {
          "include_active": true,
          "include": [
            "US"
          ],
          "exclude": [],
          "exclude_active": false
        },
        "type": "specific_products",
        "selected": [
          {
            "image": "https:\/\/cdn.shopify.com\/s\/files\/1\/0570\/3198\/3283\/products\/CaneCabinet1.jpg?v=1621282293",
            "handle": "cane-cabinet",
            "id": "6696849572019",
            "title": "Cane Cabinet"
          },
          {
            "image": "https:\/\/cdn.shopify.com\/s\/files\/1\/0570\/3198\/3283\/products\/swatch-fabric-grey.png?v=1643839307",
            "handle": "grey-fabric-swatch",
            "id": "7058508153011",
            "title": "Fabric Swatch - Grey"
          },
          {
            "image": "https:\/\/cdn.shopify.com\/s\/files\/1\/0570\/3198\/3283\/products\/swatch-leather-black.png?v=1643839346",
            "handle": "leather-swatch-black",
            "id": "7058508742835",
            "title": "Leather Swatch - Black"
          },
          {
            "image": "https:\/\/cdn.shopify.com\/s\/files\/1\/0570\/3198\/3283\/products\/swatch-leather-tan.png?v=1643840348",
            "handle": "leather-swatch-tan",
            "id": "7058508415155",
            "title": "Leather Swatch - Tan"
          },
          {
            "image": "https:\/\/cdn.shopify.com\/s\/files\/1\/0570\/3198\/3283\/products\/rug-pads-16-pack.jpg?v=1640035981",
            "handle": "non-slip-rug-grips",
            "id": "6935341433011",
            "title": "Non-Slip Rug Grips"
          },
          {
            "image": "https:\/\/cdn.shopify.com\/s\/files\/1\/0570\/3198\/3283\/products\/1_bd49bb61-82ad-4104-b8c1-a6f408544d20.jpg?v=1621346133",
            "handle": "oak-bed-frame",
            "id": "6696920383667",
            "title": "Oak Bed Frame"
          },
          {
            "image": "https:\/\/cdn.shopify.com\/s\/files\/1\/0570\/3198\/3283\/products\/30348-001AlaskaBenchOakWhiteOil-01.jpg?v=1640119878",
            "handle": "oak-dining-bench",
            "id": "6696912584883",
            "title": "Oak Dining Bench"
          },
          {
            "image": "https:\/\/cdn.shopify.com\/s\/files\/1\/0570\/3198\/3283\/products\/30328-001AlaskaDiningTableNon-ExtendableOakWhiteOil-01.jpg?v=1621282366",
            "handle": "oak-dining-table",
            "id": "6696837316787",
            "title": "Oak Dining Table"
          },
          {
            "image": "https:\/\/cdn.shopify.com\/s\/files\/1\/0570\/3198\/3283\/products\/1_fc159e6d-b227-47f2-bcb1-7b4dd5ebc7cd.jpg?v=1621282427",
            "handle": "oak-night-stand",
            "id": "6696847179955",
            "title": "Oak Night Stand"
          },
          {
            "image": "https:\/\/cdn.shopify.com\/s\/files\/1\/0570\/3198\/3283\/products\/swatch-oak.png?v=1643839365",
            "handle": "oak-swatch",
            "id": "7058506678451",
            "title": "Oak Swatch"
          },
          {
            "image": "https:\/\/cdn.shopify.com\/s\/files\/1\/0570\/3198\/3283\/products\/RattanSideTable1.jpg?v=1621286000",
            "handle": "rattan-side-table",
            "id": "6696926609587",
            "title": "Rattan Side Table"
          },
          {
            "image": "https:\/\/cdn.shopify.com\/s\/files\/1\/0570\/3198\/3283\/products\/Sungkai-Wall-Mirror-Portrait.jpg?v=1637768913",
            "handle": "sungkai-wall-mirror",
            "id": "6987130536115",
            "title": "Sungkai Wall Mirror"
          }
        ]
      },
      "updatedAt": "1645541249993"
    }
  },
  "targets": {
    "product#6696821260467": [
      "a3b4fe8d-1bad-41a2-8dcf-a6a8132b4024"
    ],
    "product#6696932049075": [
      "a3b4fe8d-1bad-41a2-8dcf-a6a8132b4024"
    ],
    "product#6696877752499": [
      "a3b4fe8d-1bad-41a2-8dcf-a6a8132b4024"
    ],
    "product#6696875655347": [
      "a3b4fe8d-1bad-41a2-8dcf-a6a8132b4024"
    ],
    "product#6696843641011": [
      "a3b4fe8d-1bad-41a2-8dcf-a6a8132b4024"
    ],
    "product#6696916779187": [
      "a3b4fe8d-1bad-41a2-8dcf-a6a8132b4024"
    ],
    "product#6696851636403": [
      "a3b4fe8d-1bad-41a2-8dcf-a6a8132b4024"
    ],
    "product#6696929231027": [
      "a3b4fe8d-1bad-41a2-8dcf-a6a8132b4024"
    ],
    "product#6696926609587": [
      "a3b4fe8d-1bad-41a2-8dcf-a6a8132b4024",
      "93032204-040e-4afd-921e-9c3e35427aca"
    ],
    "product#6975522472115": [
      "a3b4fe8d-1bad-41a2-8dcf-a6a8132b4024"
    ],
    "product#6696849572019": [
      "93032204-040e-4afd-921e-9c3e35427aca"
    ],
    "product#7058508153011": [
      "93032204-040e-4afd-921e-9c3e35427aca"
    ],
    "product#7058508742835": [
      "93032204-040e-4afd-921e-9c3e35427aca"
    ],
    "product#7058508415155": [
      "93032204-040e-4afd-921e-9c3e35427aca"
    ],
    "product#6935341433011": [
      "93032204-040e-4afd-921e-9c3e35427aca"
    ],
    "product#6696920383667": [
      "93032204-040e-4afd-921e-9c3e35427aca"
    ],
    "product#6696912584883": [
      "93032204-040e-4afd-921e-9c3e35427aca"
    ],
    "product#6696837316787": [
      "93032204-040e-4afd-921e-9c3e35427aca"
    ],
    "product#6696847179955": [
      "93032204-040e-4afd-921e-9c3e35427aca"
    ],
    "product#7058506678451": [
      "93032204-040e-4afd-921e-9c3e35427aca"
    ],
    "product#6987130536115": [
      "93032204-040e-4afd-921e-9c3e35427aca"
    ]
  },
  "collections": {
    "275419332787": [
      6696821260467,
      6696837316787,
      6696840528051,
      6696843641011,
      6696847179955,
      6696851636403,
      6696875655347,
      6696877752499,
      6696912584883,
      6696916779187,
      6696920383667,
      6696922677427,
      6696929231027,
      6696932049075,
      6935341433011,
      6975522472115,
      6987130536115,
      6696849572019,
      6696926609587
    ],
    "283035959475": [
      6696821260467,
      6696837316787,
      6696840528051,
      6696851636403,
      6696875655347,
      6696912584883,
      6696922677427,
      6696932049075,
      6935341433011,
      6975522472115,
      6987130536115,
      6696849572019
    ],
    "284228780211": [
      6696821260467,
      6696875655347,
      6696912584883,
      6696932049075
    ],
    "284366569651": [
      6696821260467,
      6696837316787,
      6696840528051,
      6696843641011,
      6696847179955,
      6696875655347,
      6696877752499,
      6696912584883,
      6696916779187,
      6696920383667,
      6696922677427,
      6696932049075
    ],
    "283005092019": [
      6696840528051,
      6696843641011,
      6696877752499,
      6696916779187,
      6696929231027,
      6844981379251,
      6844982132915,
      6935341433011,
      6975522472115,
      6987130536115,
      6696849572019,
      6696926609587
    ],
    "283036025011": [
      6696847179955,
      6696916779187,
      6696920383667,
      6935341433011,
      6975522472115,
      6987130536115,
      6696849572019
    ],
    "284366602419": [
      6696851636403,
      6696929231027,
      6696926609587
    ],
    "284228747443": [
      6696877752499,
      6696929231027
    ],
    "284228911283": [
      6696922677427,
      6696932049075
    ],
    "283299414195": [
      6935341433011,
      6975522472115,
      6987130536115
    ],
    "284228681907": [
      6981138710707,
      6981143363763,
      6981144936627,
      6981145526451
    ],
    "284228616371": [
      6982253445299,
      6982260326579,
      6982275596467,
      6982282182835
    ],
    "286161404083": [
      7058509463731,
      7058509594803,
      7076602839219,
      7058508415155,
      7058508153011,
      7058508742835,
      7058506678451
    ],
    "284366635187": [
      6696849572019
    ]
  },
  "variants": {
    "6696821260467": {
      "39822151909555": {
        "price": "479.00",
        "compareAtPrice": "600.00"
      },
      "39822151942323": {
        "price": "479.00",
        "compareAtPrice": "600.00"
      },
      "39822151975091": {
        "price": "479.00",
        "compareAtPrice": "600.00"
      }
    },
    "6696837316787": {
      "39822248575155": {
        "price": "1099.00",
        "compareAtPrice": "1800.00"
      }
    },
    "6696840528051": {
      "39822266532019": {
        "price": "1099.00",
        "compareAtPrice": "1500.00"
      }
    },
    "6696843641011": {
      "39822283112627": {
        "price": "729.00",
        "compareAtPrice": "1000.00"
      }
    },
    "6696847179955": {
      "39822322106547": {
        "price": "379.00",
        "compareAtPrice": "650.00"
      }
    },
    "6696849572019": {
      "39822331052211": {
        "price": "999.00",
        "compareAtPrice": "1550.00"
      }
    },
    "6696851636403": {
      "39822341177523": {
        "price": "599.00",
        "compareAtPrice": "700.00"
      }
    },
    "6696875655347": {
      "39822446919859": {
        "price": "549.00",
        "compareAtPrice": "1100.00"
      },
      "39822446952627": {
        "price": "549.00",
        "compareAtPrice": "1100.00"
      },
      "39822446985395": {
        "price": "549.00",
        "compareAtPrice": "1100.00"
      }
    },
    "6696877752499": {
      "39822453932211": {
        "price": "449.00",
        "compareAtPrice": "900.00"
      },
      "39822453899443": {
        "price": "449.00",
        "compareAtPrice": "900.00"
      }
    },
    "6696912584883": {
      "39822584152243": {
        "price": "479.00",
        "compareAtPrice": "1000.00"
      },
      "39822584185011": {
        "price": "379.00",
        "compareAtPrice": "900.00"
      }
    },
    "6696916779187": {
      "39822603387059": {
        "price": "749.00",
        "compareAtPrice": "899.00"
      },
      "39822603419827": {
        "price": "749.00",
        "compareAtPrice": "899.00"
      }
    },
    "6696920383667": {
      "39822624063667": {
        "price": "999.00",
        "compareAtPrice": "1500.00"
      },
      "39822624096435": {
        "price": "1099.00",
        "compareAtPrice": "1700.00"
      }
    },
    "6696922677427": {
      "39822634057907": {
        "price": "599.00",
        "compareAtPrice": "850.00"
      },
      "39822634090675": {
        "price": "699.00",
        "compareAtPrice": "1000.00"
      }
    },
    "6696926609587": {
      "40353927102643": {
        "price": "399.00",
        "compareAtPrice": "600.00"
      }
    },
    "6696929231027": {
      "40353928151219": {
        "price": "599.00",
        "compareAtPrice": "1000.00"
      }
    },
    "6696932049075": {
      "39822684881075": {
        "price": "449.00",
        "compareAtPrice": "550.00"
      },
      "39822684979379": {
        "price": "429.00",
        "compareAtPrice": "500.00"
      },
      "39822684913843": {
        "price": "449.00",
        "compareAtPrice": "550.00"
      },
      "39822685012147": {
        "price": "429.00",
        "compareAtPrice": "500.00"
      },
      "39822684946611": {
        "price": "449.00",
        "compareAtPrice": "550.00"
      },
      "39822685044915": {
        "price": "429.00",
        "compareAtPrice": "500.00"
      }
    },
    "6815295832243": {
      "40248125194419": {
        "price": "98.00",
        "compareAtPrice": null
      },
      "40248125227187": {
        "price": "119.00",
        "compareAtPrice": null
      },
      "40248125259955": {
        "price": "199.00",
        "compareAtPrice": null
      },
      "40248125292723": {
        "price": "98.00",
        "compareAtPrice": null
      },
      "40248125325491": {
        "price": "119.00",
        "compareAtPrice": null
      },
      "40248125358259": {
        "price": "199.00",
        "compareAtPrice": null
      },
      "40248125391027": {
        "price": "98.00",
        "compareAtPrice": null
      },
      "40248125423795": {
        "price": "119.00",
        "compareAtPrice": null
      },
      "40248125456563": {
        "price": "199.00",
        "compareAtPrice": null
      },
      "40248125489331": {
        "price": "98.00",
        "compareAtPrice": null
      },
      "40248125522099": {
        "price": "119.00",
        "compareAtPrice": null
      },
      "40248125554867": {
        "price": "199.00",
        "compareAtPrice": null
      },
      "40248125587635": {
        "price": "98.00",
        "compareAtPrice": null
      },
      "40248125620403": {
        "price": "119.00",
        "compareAtPrice": null
      },
      "40248125653171": {
        "price": "199.00",
        "compareAtPrice": null
      },
      "40248125685939": {
        "price": "98.00",
        "compareAtPrice": null
      },
      "40248125718707": {
        "price": "119.00",
        "compareAtPrice": null
      },
      "40248125751475": {
        "price": "199.00",
        "compareAtPrice": null
      },
      "40248125817011": {
        "price": "98.00",
        "compareAtPrice": null
      },
      "40248125849779": {
        "price": "119.00",
        "compareAtPrice": null
      },
      "40248125882547": {
        "price": "199.00",
        "compareAtPrice": null
      },
      "40248125915315": {
        "price": "98.00",
        "compareAtPrice": null
      },
      "40248125948083": {
        "price": "119.00",
        "compareAtPrice": null
      },
      "40248125980851": {
        "price": "199.00",
        "compareAtPrice": null
      }
    },
    "6844981379251": {
      "40353924382899": {
        "price": "350.00",
        "compareAtPrice": null
      },
      "40353924415667": {
        "price": "700.00",
        "compareAtPrice": null
      },
      "40353924448435": {
        "price": "350.00",
        "compareAtPrice": null
      },
      "40353924481203": {
        "price": "700.00",
        "compareAtPrice": null
      },
      "40353924513971": {
        "price": "1050.00",
        "compareAtPrice": null
      }
    },
    "6844982132915": {
      "40353925660851": {
        "price": "350.00",
        "compareAtPrice": null
      },
      "40353925693619": {
        "price": "700.00",
        "compareAtPrice": null
      },
      "40353925726387": {
        "price": "350.00",
        "compareAtPrice": null
      },
      "40353925759155": {
        "price": "700.00",
        "compareAtPrice": null
      },
      "40353925791923": {
        "price": "1050.00",
        "compareAtPrice": null
      }
    },
    "6935341433011": {
      "40703229198515": {
        "price": "17.99",
        "compareAtPrice": null
      },
      "40703229231283": {
        "price": "10.99",
        "compareAtPrice": null
      },
      "40703229264051": {
        "price": "6.99",
        "compareAtPrice": null
      }
    },
    "6975522472115": {
      "40868024025267": {
        "price": "529.00",
        "compareAtPrice": "1000.00"
      }
    },
    "6981138710707": {
      "40893125263539": {
        "price": "39.99",
        "compareAtPrice": null
      },
      "40893125296307": {
        "price": "39.99",
        "compareAtPrice": null
      },
      "40893125329075": {
        "price": "39.99",
        "compareAtPrice": null
      },
      "40893125361843": {
        "price": "39.99",
        "compareAtPrice": null
      },
      "40893125394611": {
        "price": "39.99",
        "compareAtPrice": null
      },
      "40893125427379": {
        "price": "39.99",
        "compareAtPrice": null
      },
      "40893125460147": {
        "price": "39.99",
        "compareAtPrice": null
      },
      "40893125492915": {
        "price": "39.99",
        "compareAtPrice": null
      }
    },
    "6981143363763": {
      "40893136404659": {
        "price": "39.99",
        "compareAtPrice": null
      },
      "40893136437427": {
        "price": "39.99",
        "compareAtPrice": null
      },
      "40893136470195": {
        "price": "39.99",
        "compareAtPrice": null
      },
      "40893136502963": {
        "price": "39.99",
        "compareAtPrice": null
      },
      "40893136535731": {
        "price": "39.99",
        "compareAtPrice": null
      },
      "40893136568499": {
        "price": "39.99",
        "compareAtPrice": null
      },
      "40893136601267": {
        "price": "39.99",
        "compareAtPrice": null
      }
    },
    "6981144936627": {
      "40893141647539": {
        "price": "19.99",
        "compareAtPrice": null
      },
      "40893141680307": {
        "price": "39.99",
        "compareAtPrice": null
      },
      "40893141713075": {
        "price": "39.99",
        "compareAtPrice": null
      },
      "40893141745843": {
        "price": "39.99",
        "compareAtPrice": null
      },
      "40893141778611": {
        "price": "39.99",
        "compareAtPrice": null
      },
      "40893141811379": {
        "price": "39.99",
        "compareAtPrice": null
      },
      "40893141844147": {
        "price": "39.99",
        "compareAtPrice": null
      },
      "40893141876915": {
        "price": "39.99",
        "compareAtPrice": null
      }
    },
    "6981145526451": {
      "40893144563891": {
        "price": "39.99",
        "compareAtPrice": null
      },
      "40893144596659": {
        "price": "39.99",
        "compareAtPrice": null
      },
      "40893144629427": {
        "price": "39.99",
        "compareAtPrice": null
      },
      "40893144662195": {
        "price": "39.99",
        "compareAtPrice": null
      },
      "40893144694963": {
        "price": "39.99",
        "compareAtPrice": null
      },
      "40893144727731": {
        "price": "39.99",
        "compareAtPrice": null
      }
    },
    "6982253445299": {
      "40900158357683": {
        "price": "65.99",
        "compareAtPrice": null
      },
      "40900158390451": {
        "price": "65.99",
        "compareAtPrice": null
      },
      "40900158423219": {
        "price": "65.99",
        "compareAtPrice": null
      },
      "40900158455987": {
        "price": "29.99",
        "compareAtPrice": null
      },
      "40900158488755": {
        "price": "29.99",
        "compareAtPrice": null
      },
      "40900158521523": {
        "price": "29.99",
        "compareAtPrice": null
      },
      "40900158554291": {
        "price": "42.99",
        "compareAtPrice": null
      },
      "40900158587059": {
        "price": "42.99",
        "compareAtPrice": null
      },
      "40900158619827": {
        "price": "42.99",
        "compareAtPrice": null
      },
      "40900158652595": {
        "price": "62.99",
        "compareAtPrice": null
      },
      "40900158685363": {
        "price": "62.99",
        "compareAtPrice": null
      },
      "40900158718131": {
        "price": "62.99",
        "compareAtPrice": null
      },
      "40900158750899": {
        "price": "99.99",
        "compareAtPrice": null
      },
      "40900158783667": {
        "price": "99.99",
        "compareAtPrice": null
      },
      "40900158816435": {
        "price": "99.99",
        "compareAtPrice": null
      },
      "40900158849203": {
        "price": "249.99",
        "compareAtPrice": null
      },
      "40900158881971": {
        "price": "249.99",
        "compareAtPrice": null
      }
    },
    "6982260326579": {
      "40900181852339": {
        "price": "65.99",
        "compareAtPrice": null
      },
      "40900181885107": {
        "price": "65.99",
        "compareAtPrice": null
      },
      "40900181917875": {
        "price": "65.99",
        "compareAtPrice": null
      },
      "40900181950643": {
        "price": "29.99",
        "compareAtPrice": null
      },
      "40900181983411": {
        "price": "29.99",
        "compareAtPrice": null
      },
      "40900182016179": {
        "price": "29.99",
        "compareAtPrice": null
      },
      "40900182048947": {
        "price": "42.99",
        "compareAtPrice": null
      },
      "40900182081715": {
        "price": "42.99",
        "compareAtPrice": null
      },
      "40900182114483": {
        "price": "42.99",
        "compareAtPrice": null
      },
      "40900182147251": {
        "price": "62.99",
        "compareAtPrice": null
      },
      "40900182180019": {
        "price": "62.99",
        "compareAtPrice": null
      },
      "40900182212787": {
        "price": "62.99",
        "compareAtPrice": null
      },
      "40900182245555": {
        "price": "99.99",
        "compareAtPrice": null
      },
      "40900182278323": {
        "price": "99.99",
        "compareAtPrice": null
      },
      "40900182311091": {
        "price": "99.99",
        "compareAtPrice": null
      },
      "40900182343859": {
        "price": "185.99",
        "compareAtPrice": null
      },
      "40900182376627": {
        "price": "185.99",
        "compareAtPrice": null
      },
      "40900182409395": {
        "price": "185.99",
        "compareAtPrice": null
      }
    },
    "6982275596467": {
      "40900234215603": {
        "price": "65.99",
        "compareAtPrice": null
      },
      "40900234281139": {
        "price": "65.99",
        "compareAtPrice": null
      },
      "40900234313907": {
        "price": "65.99",
        "compareAtPrice": null
      },
      "40900234346675": {
        "price": "29.99",
        "compareAtPrice": null
      },
      "40900234379443": {
        "price": "29.99",
        "compareAtPrice": null
      },
      "40900234412211": {
        "price": "29.99",
        "compareAtPrice": null
      },
      "40900234444979": {
        "price": "42.99",
        "compareAtPrice": null
      },
      "40900234477747": {
        "price": "42.99",
        "compareAtPrice": null
      },
      "40900234510515": {
        "price": "42.99",
        "compareAtPrice": null
      },
      "40900234543283": {
        "price": "62.99",
        "compareAtPrice": null
      },
      "40900234576051": {
        "price": "62.99",
        "compareAtPrice": null
      },
      "40900234608819": {
        "price": "62.99",
        "compareAtPrice": null
      },
      "40900234641587": {
        "price": "99.99",
        "compareAtPrice": null
      },
      "40900234674355": {
        "price": "99.99",
        "compareAtPrice": null
      },
      "40900234707123": {
        "price": "99.99",
        "compareAtPrice": null
      },
      "40900234739891": {
        "price": "249.99",
        "compareAtPrice": null
      },
      "40900234772659": {
        "price": "249.99",
        "compareAtPrice": null
      }
    },
    "6982282182835": {
      "40900265738419": {
        "price": "65.99",
        "compareAtPrice": null
      },
      "40900265771187": {
        "price": "29.99",
        "compareAtPrice": null
      },
      "40900265803955": {
        "price": "42.99",
        "compareAtPrice": null
      },
      "40900265836723": {
        "price": "62.99",
        "compareAtPrice": null
      },
      "40900265869491": {
        "price": "99.99",
        "compareAtPrice": null
      },
      "40900265902259": {
        "price": "115.99",
        "compareAtPrice": null
      },
      "40900265935027": {
        "price": "185.99",
        "compareAtPrice": null
      },
      "40900265967795": {
        "price": "339.99",
        "compareAtPrice": null
      }
    },
    "6982288244915": {
      "40900282319027": {
        "price": "65.99",
        "compareAtPrice": null
      },
      "40900282351795": {
        "price": "29.99",
        "compareAtPrice": null
      },
      "40900282384563": {
        "price": "42.99",
        "compareAtPrice": null
      },
      "40900282417331": {
        "price": "62.99",
        "compareAtPrice": null
      },
      "40900282450099": {
        "price": "99.99",
        "compareAtPrice": null
      },
      "40900282482867": {
        "price": "115.99",
        "compareAtPrice": null
      },
      "40900282515635": {
        "price": "185.99",
        "compareAtPrice": null
      },
      "40900282548403": {
        "price": "339.99",
        "compareAtPrice": null
      }
    },
    "6982297714867": {
      "40900327473331": {
        "price": "65.99",
        "compareAtPrice": null
      },
      "40900327506099": {
        "price": "29.99",
        "compareAtPrice": null
      },
      "40900327538867": {
        "price": "42.99",
        "compareAtPrice": null
      },
      "40900327571635": {
        "price": "62.99",
        "compareAtPrice": null
      },
      "40900327604403": {
        "price": "99.99",
        "compareAtPrice": null
      },
      "40900327637171": {
        "price": "115.99",
        "compareAtPrice": null
      },
      "40900327669939": {
        "price": "185.99",
        "compareAtPrice": null
      },
      "40900327702707": {
        "price": "339.99",
        "compareAtPrice": null
      }
    },
    "6982298927283": {
      "40900346380467": {
        "price": "65.99",
        "compareAtPrice": null
      },
      "40900346413235": {
        "price": "29.99",
        "compareAtPrice": null
      },
      "40900346446003": {
        "price": "42.99",
        "compareAtPrice": null
      },
      "40900346478771": {
        "price": "62.99",
        "compareAtPrice": null
      },
      "40900346511539": {
        "price": "99.99",
        "compareAtPrice": null
      },
      "40900346544307": {
        "price": "115.99",
        "compareAtPrice": null
      },
      "40900346577075": {
        "price": "185.99",
        "compareAtPrice": null
      },
      "40900346609843": {
        "price": "339.99",
        "compareAtPrice": null
      }
    },
    "6982300795059": {
      "40900361748659": {
        "price": "65.99",
        "compareAtPrice": null
      },
      "40900361781427": {
        "price": "29.99",
        "compareAtPrice": null
      },
      "40900361814195": {
        "price": "42.99",
        "compareAtPrice": null
      },
      "40900361846963": {
        "price": "62.99",
        "compareAtPrice": null
      },
      "40900361879731": {
        "price": "99.99",
        "compareAtPrice": null
      },
      "40900361912499": {
        "price": "115.99",
        "compareAtPrice": null
      },
      "40900361945267": {
        "price": "185.99",
        "compareAtPrice": null
      },
      "40900361978035": {
        "price": "339.99",
        "compareAtPrice": null
      }
    },
    "6982304694451": {
      "40900379377843": {
        "price": "79.99",
        "compareAtPrice": null
      },
      "40900379410611": {
        "price": "37.99",
        "compareAtPrice": null
      },
      "40900379443379": {
        "price": "52.99",
        "compareAtPrice": null
      },
      "40900379476147": {
        "price": "99.99",
        "compareAtPrice": null
      },
      "40900379508915": {
        "price": "129.99",
        "compareAtPrice": null
      },
      "40900379541683": {
        "price": "165.99",
        "compareAtPrice": null
      }
    },
    "6982310133939": {
      "40900403658931": {
        "price": "65.99",
        "compareAtPrice": null
      },
      "40900403691699": {
        "price": "29.99",
        "compareAtPrice": null
      },
      "40900403724467": {
        "price": "42.99",
        "compareAtPrice": null
      },
      "40900403757235": {
        "price": "62.99",
        "compareAtPrice": null
      },
      "40900403790003": {
        "price": "99.99",
        "compareAtPrice": null
      },
      "40900403822771": {
        "price": "115.99",
        "compareAtPrice": null
      },
      "40900403855539": {
        "price": "185.99",
        "compareAtPrice": null
      },
      "40900403888307": {
        "price": "339.99",
        "compareAtPrice": null
      }
    },
    "6987130536115": {
      "40917795635379": {
        "price": "299.00",
        "compareAtPrice": "500.00"
      }
    },
    "7058506678451": {
      "41173239562419": {
        "price": "10.00",
        "compareAtPrice": null
      }
    },
    "7058508153011": {
      "41173247623347": {
        "price": "3.00",
        "compareAtPrice": null
      }
    },
    "7058508415155": {
      "41173248671923": {
        "price": "5.00",
        "compareAtPrice": null
      }
    },
    "7058508742835": {
      "41173250179251": {
        "price": "5.00",
        "compareAtPrice": null
      }
    },
    "7058509463731": {
      "41173252702387": {
        "price": "5.00",
        "compareAtPrice": null
      }
    },
    "7058509594803": {
      "41173253423283": {
        "price": "5.00",
        "compareAtPrice": null
      }
    },
    "7076602839219": {
      "41249950728371": {
        "price": "5.00",
        "compareAtPrice": null
      }
    }
  }
}