{
  "sections": {
    "main": {
      "type": "404-template",
      "settings": {
        "bg_color": "#f5f5f5",
        "t1_color": "#181b25",
        "t2_color": "#181b25"
      }
    }
  },
  "order": [
    "main"
  ]
}