{
  "sections": {
    "main": {
      "type": "page-contact",
      "settings": {
        "container": "container"
      }
    },
    "maps": {
      "type": "maps",
      "disabled": true,
      "settings": {
        "container": "container",
        "map_height": "large",
        "textx": "40.6700",
        "texty": "-73.9400",
        "zoom": "11",
        "text2": "New York"
      }
    },
    "contact-form": {
      "type": "contact-form",
      "blocks": {
        "text-block-1": {
          "type": "textblock",
          "disabled": true,
          "settings": {
            "title": "Address",
            "content": "<p>177 Huntington Ave<\/p><p>Boston, MA 02115<\/p>"
          }
        },
        "text-block-2": {
          "type": "textblock",
          "disabled": true,
          "settings": {
            "title": "Information",
            "content": "<p>hello@pebbleandcrane.com<\/p>"
          }
        },
        "text-block-3": {
          "type": "socialmedia",
          "disabled": true,
          "settings": {
            "title": "Follow Pebble & Crane"
          }
        }
      },
      "block_order": [
        "text-block-1",
        "text-block-2",
        "text-block-3"
      ],
      "settings": {
        "container": "container-fluid",
        "title": "We would love to hear from you.",
        "description": "<p>We're here to answer any questions. Complete the form below or email us at <a href=\"mailto:hello@pebbleandcrane.com\" target=\"_blank\">hello@pebbleandcrane.com<\/a>.<\/p>",
        "show_name": true,
        "show_phone": false,
        "show_email": true,
        "show_message": true
      }
    },
    "16401937647ec4cfd3": {
      "type": "custom-content",
      "disabled": true,
      "blocks": {
        "16401937647fca91ae-0": {
          "type": "text",
          "settings": {
            "title": "",
            "subheading": "<h3>Address<\/h3>",
            "text": "<p>177 Huntington Ave<\/p><p>Boston, MA 02115<\/p>",
            "width": "33%",
            "alignment": "start",
            "align_text": "left",
            "text_size": "medium",
            "text_color": "black",
            "button_label": "",
            "button_link": "",
            "button_style": "sf__btn-primary",
            "button_size": "",
            "block_custom_class": ""
          }
        },
        "419a7d32-662b-464d-a9ba-a6e159ed0132": {
          "type": "text",
          "settings": {
            "title": "",
            "subheading": "<h3>Email<\/h3>",
            "text": "<p>hello@pebbleandcrane.com<\/p>",
            "width": "33%",
            "alignment": "start",
            "align_text": "left",
            "text_size": "medium",
            "text_color": "black",
            "button_label": "",
            "button_link": "",
            "button_style": "sf__btn-primary",
            "button_size": "",
            "block_custom_class": ""
          }
        },
        "da1f41c7-5c40-4256-b092-a38e749c7908": {
          "type": "social",
          "settings": {
            "heading": "<h3>Social<\/h3>",
            "description": "",
            "width": "33%",
            "block_custom_class": ""
          }
        }
      },
      "block_order": [
        "16401937647fca91ae-0",
        "419a7d32-662b-464d-a9ba-a6e159ed0132",
        "da1f41c7-5c40-4256-b092-a38e749c7908"
      ],
      "settings": {
        "heading": "",
        "subheading": "",
        "description": "",
        "header_alignment": "left",
        "container": "container-fluid",
        "background_color": "",
        "gap": 30,
        "use_scroll_mobile": false,
        "gap_mobile": 16,
        "custom_class": ""
      }
    },
    "1640193729044a8cbb": {
      "type": "icon-box",
      "disabled": true,
      "blocks": {
        "1640193729f9769b44-0": {
          "type": "iconbox",
          "settings": {
            "title": "Standard Shipping Worldwide",
            "description": "<p>Tell about your service.<\/p>",
            "link": "",
            "button_label": "",
            "button_link": "",
            "button_style": "sf__btn-link",
            "button_size": ""
          }
        },
        "1640193729f9769b44-1": {
          "type": "iconbox",
          "settings": {
            "title": "100% Safe & Secure Checkout",
            "description": "<p>Tell about your service.<\/p>",
            "link": "",
            "button_label": "",
            "button_link": "",
            "button_style": "sf__btn-link",
            "button_size": ""
          }
        },
        "1640193729f9769b44-2": {
          "type": "iconbox",
          "settings": {
            "title": "24\/7 online support",
            "description": "<p>Tell about your service.<\/p>",
            "link": "",
            "button_label": "",
            "button_link": "",
            "button_style": "sf__btn-link",
            "button_size": ""
          }
        }
      },
      "block_order": [
        "1640193729f9769b44-0",
        "1640193729f9769b44-1",
        "1640193729f9769b44-2"
      ],
      "settings": {
        "heading": "Designed for Your Comfort",
        "subheading": "",
        "description": "",
        "header_alignment": "center",
        "container": "container-fluid",
        "background_color": "rgba(0,0,0,0)",
        "item_per_row": 3,
        "item_gap": 30,
        "item_gap_mobile": 10,
        "card_style": "vertical",
        "image_max_width": "70px",
        "content_alignment": "center",
        "hover_effect": "zoom-in",
        "enable_slider": false,
        "show_pagination": false,
        "show_navigation": false,
        "use_scroll_mobile": true,
        "use_grid_column_mb": false,
        "custom_class": ""
      }
    },
    "164019375709c34dd1": {
      "type": "recent-viewed-products",
      "disabled": true,
      "settings": {
        "heading": "Recently Viewed",
        "container": "container",
        "columns": 4,
        "column_gap": 30,
        "enable_slider": true
      }
    }
  },
  "order": [
    "main",
    "maps",
    "contact-form",
    "16401937647ec4cfd3",
    "1640193729044a8cbb",
    "164019375709c34dd1"
  ]
}