{
  "sections": {
    "color_swatch": {
      "type": "product-color-swatch",
      "blocks": {
        "12a61359-727b-4a90-b70d-45e75eebd4a6": {
          "type": "swatch",
          "settings": {
            "title": "Grey",
            "image": "shopify:\/\/shop_images\/carlisle-grey-swatch.jpg",
            "color": ""
          }
        },
        "e26ea232-bc7f-46c2-b5df-bf8e43c12630": {
          "type": "swatch",
          "settings": {
            "title": "Beige",
            "image": "shopify:\/\/shop_images\/carlisle-beige-swatch.jpg",
            "color": ""
          }
        },
        "ea448569-cf51-4d0c-a9e0-eff393a96822": {
          "type": "swatch",
          "settings": {
            "title": "Spice",
            "image": "shopify:\/\/shop_images\/carlisle-spice-swatch.jpg",
            "color": "rgba(0,0,0,0)"
          }
        }
      },
      "block_order": [
        "12a61359-727b-4a90-b70d-45e75eebd4a6",
        "e26ea232-bc7f-46c2-b5df-bf8e43c12630",
        "ea448569-cf51-4d0c-a9e0-eff393a96822"
      ],
      "settings": {}
    },
    "breadcrumb": {
      "type": "breadcrumb",
      "settings": {
        "container": "container-fluid",
        "text_alignment": "left",
        "hide_current": false,
        "hide_on_mb": false
      }
    },
    "main": {
      "type": "main-product",
      "blocks": {
        "title": {
          "type": "title",
          "settings": {}
        },
        "9810ae93-a6fe-4c17-853c-4fe4a15b3110": {
          "type": "shopify:\/\/apps\/yotpo-product-reviews-photos\/blocks\/star-rating\/eb7dfd7d-db44-4334-bc49-c893b51b36cf",
          "settings": {
            "product": "{{product}}"
          }
        },
        "price": {
          "type": "price",
          "settings": {}
        },
        "variant_picker": {
          "type": "variant_picker",
          "settings": {
            "size_title": "Size"
          }
        },
        "c0491299-e80c-4c14-a6a5-ec9e9032cb0b": {
          "type": "size_guide",
          "disabled": true,
          "settings": {
            "image": "{{ product.metafields.my_fields.size_guide.value }}"
          }
        },
        "buy_buttons": {
          "type": "buy_buttons",
          "settings": {
            "show_quantity_selector": true,
            "show_atc_button": true,
            "show_dynamic_checkout": true
          }
        },
        "9c87776d-814c-483c-8578-f4582b447609": {
          "type": "description",
          "disabled": true,
          "settings": {}
        },
        "6c7a23dd-f672-4edf-9df1-a66f66446bd7": {
          "type": "text",
          "disabled": true,
          "settings": {
            "text": "Text block",
            "text_style": "body"
          }
        },
        "8d6a5df7-140e-4164-94ce-6cce4da26d89": {
          "type": "text",
          "disabled": true,
          "settings": {
            "text": "Text block",
            "text_style": "body"
          }
        },
        "44b66ab5-987b-4784-a0c4-4949c0bb6d46": {
          "type": "shipping",
          "settings": {
            "show_delivery_times": true,
            "deliver_text": "Estimated Delivery:",
            "show_shipping_text": true,
            "shipping_text_label": "Free Shipping & Returns:"
          }
        },
        "284d1ccb-b217-41f2-8c16-ffcb37f85c5f": {
          "type": "collapsible_tab",
          "settings": {}
        },
        "e7e3751d-da91-4c9c-9c54-1f87a3dadf0d": {
          "type": "short_description",
          "disabled": true,
          "settings": {}
        },
        "addons": {
          "type": "addons",
          "settings": {
            "show_atcp": false,
            "show_ask_a_question": false,
            "show_social": false
          }
        },
        "973fcb58-69c5-453c-a4b7-d1c6a9b7b299": {
          "type": "text",
          "disabled": true,
          "settings": {
            "text": "Text block",
            "text_style": "body"
          }
        }
      },
      "block_order": [
        "title",
        "9810ae93-a6fe-4c17-853c-4fe4a15b3110",
        "price",
        "variant_picker",
        "c0491299-e80c-4c14-a6a5-ec9e9032cb0b",
        "buy_buttons",
        "9c87776d-814c-483c-8578-f4582b447609",
        "6c7a23dd-f672-4edf-9df1-a66f66446bd7",
        "8d6a5df7-140e-4164-94ce-6cce4da26d89",
        "44b66ab5-987b-4784-a0c4-4949c0bb6d46",
        "284d1ccb-b217-41f2-8c16-ffcb37f85c5f",
        "e7e3751d-da91-4c9c-9c54-1f87a3dadf0d",
        "addons",
        "973fcb58-69c5-453c-a4b7-d1c6a9b7b299"
      ],
      "settings": {
        "container": "container-fluid",
        "layout": "layout-1",
        "show_atwl": true,
        "show_nav_media_mobile": false,
        "show_pagination_mobile": true,
        "use_sticky_atc": true,
        "use_sticky_atc_on_mobile": true,
        "enable_dynamic_checkout": false,
        "sticky_atc_wishtlist": false,
        "sticky_atc_compare": false
      }
    },
    "product-details-tabs": {
      "type": "product-details-tabs",
      "disabled": true,
      "blocks": {
        "description": {
          "type": "description",
          "settings": {
            "header": "Product Description"
          }
        },
        "tab": {
          "type": "tab",
          "settings": {
            "header": "Shipping & Return",
            "content": "<p>Shipping cost is based on weight. Just add products to your cart and use the Shipping Calculator to see the shipping price.<\/p><p>We want you to be 100% satisfied with your purchase. Items can be returned or exchanged within 30 days of delivery.<\/p>",
            "content_page": ""
          }
        }
      },
      "block_order": [
        "description",
        "tab"
      ],
      "settings": {
        "container": "container-fluid",
        "bg_color": "#f4f4f4",
        "default_open": true
      }
    },
    "1646759211901b06ae": {
      "type": "image-with-text",
      "settings": {
        "heading": "",
        "subheading": "",
        "container": "container-fluid",
        "background_color": "rgba(0,0,0,0)",
        "item_gap": 100,
        "item_gap_mobile": 30,
        "image": "{{ product.metafields.my_fields.pdp_bath_mat_highlight.value }}",
        "link": "",
        "layout": "left",
        "image_column_size": "6",
        "title": "Why we love this handmade rug",
        "sub_title": "",
        "text": "<p>{{ product.metafields.my_fields.short_description | metafield_tag }}<\/p><p><strong>Lovingly Handmade.<\/strong> Handcrafted with care to create a stunning artisan look that can’t be replicated by generic machine-made rugs<\/p><p>Made with {{ product.metafields.my_fields.materials | metafield_tag }}<\/p><p><strong>Just the Right Size.<\/strong> Our rugs are available in sizes ranging from a simple entry mat to a large area rug or lengthy runner, ensuring that no matter your space, there’s a size that’s perfect for you.<\/p>",
        "text_size": "medium",
        "content_alignment": "left",
        "button_label": "",
        "button_link": "",
        "button_style": "sf__btn-link",
        "button_size": "",
        "custom_class": ""
      }
    },
    "16385398106d128365": {
      "type": "image-with-text-2",
      "settings": {
        "container": "container-fluid",
        "hero_size": "medium",
        "show_overlay": false,
        "image": "{{ product.metafields.my_fields.pdp_description_banner.value }}",
        "bg_position": "center",
        "image_link": "",
        "parallax": false,
        "content_in_container": true,
        "content_position": "center middle",
        "text_alignment": "center",
        "text_size": "medium",
        "text_color": "dark",
        "title": "",
        "subtitle": "",
        "text": "",
        "button_label": "",
        "button_link": "",
        "button_style": "sf__btn-primary",
        "button_size": "",
        "mb_image": "{{ product.metafields.my_fields.pdp_description_banner_mobile_.value }}",
        "custom_class": ""
      }
    },
    "1638538367f7bbd43b": {
      "type": "apps",
      "blocks": {
        "a75ecbab-3b4e-4386-9514-3c72b91f29ff": {
          "type": "shopify:\/\/apps\/yotpo-product-reviews-photos\/blocks\/reviews\/eb7dfd7d-db44-4334-bc49-c893b51b36cf",
          "settings": {
            "product": "{{product}}"
          }
        }
      },
      "block_order": [
        "a75ecbab-3b4e-4386-9514-3c72b91f29ff"
      ],
      "settings": {
        "heading": "",
        "subheading": "",
        "header_alignment": "center",
        "container": "container-fluid",
        "background_color": "",
        "custom_class": ""
      }
    },
    "16476147633c350791": {
      "type": "featured-collection",
      "settings": {
        "heading": "More Handcrafted Rugs & Runners",
        "subheading": "NEW ARRIVALS",
        "description": "Design down to your toes.",
        "header_alignment": "center",
        "container": "container",
        "background_color": "rgba(0,0,0,0)",
        "collection": "area-rugs-runners",
        "product_to_show": 8,
        "items_per_row": 4,
        "item_gap": 30,
        "pcard_layout": "",
        "pcard_image_ratio": "",
        "show_vendor": false,
        "enable_slider": false,
        "show_pagination": false,
        "show_navigation": false,
        "button_type": "link",
        "button_text": "Shop more",
        "button_style": "sf__btn-primary",
        "button_size": "",
        "infinite_load": false,
        "max_page_load": 3,
        "use_scroll_mobile": true,
        "item_gap_mobile": 16,
        "custom_class": ""
      }
    },
    "1646759048cee3bb37": {
      "type": "image-with-text-1",
      "disabled": true,
      "blocks": {
        "1646759048a68a52af-0": {
          "type": "item",
          "settings": {
            "content_position": "bottom_center",
            "content_alignment": "left",
            "text_size": "medium",
            "text_color": "black",
            "image": "shopify:\/\/shop_images\/adelaid-why-we-love.jpg",
            "link": "",
            "title": "",
            "subtitle": "",
            "button_label": "",
            "button_style": "sf__btn-primary",
            "button_size": ""
          }
        },
        "1646759048a68a52af-1": {
          "type": "item",
          "settings": {
            "content_position": "center_center",
            "content_alignment": "center",
            "text_size": "medium",
            "text_color": "black",
            "image": "shopify:\/\/shop_images\/banded-spa-closeup.jpg",
            "link": "",
            "title": "",
            "subtitle": "",
            "button_label": "Banded Spa",
            "button_style": "sf__btn-white",
            "button_size": ""
          }
        },
        "1646759048a68a52af-2": {
          "type": "item",
          "settings": {
            "content_position": "center_center",
            "content_alignment": "left",
            "text_size": "medium",
            "text_color": "black",
            "image": "shopify:\/\/shop_images\/melange-closeup.jpg",
            "link": "",
            "title": "",
            "subtitle": "",
            "button_label": "Melange",
            "button_style": "sf__btn-white",
            "button_size": ""
          }
        },
        "1646759048a68a52af-3": {
          "type": "item",
          "settings": {
            "content_position": "center_center",
            "content_alignment": "left",
            "text_size": "medium",
            "text_color": "black",
            "image": "shopify:\/\/shop_images\/capemay-closeup.jpg",
            "link": "",
            "title": "",
            "subtitle": "",
            "button_label": "Cape May",
            "button_style": "sf__btn-white",
            "button_size": ""
          }
        },
        "228c5902-9197-40f3-a533-cb796bbdc792": {
          "type": "item",
          "settings": {
            "content_position": "center_center",
            "content_alignment": "left",
            "text_size": "medium",
            "text_color": "black",
            "image": "shopify:\/\/shop_images\/adelaid-closeup_0f9cbb0c-7770-40ce-a3ac-42bdd8c1de73.jpg",
            "link": "",
            "title": "",
            "subtitle": "",
            "button_label": "Adelaid",
            "button_style": "sf__btn-white",
            "button_size": ""
          }
        }
      },
      "block_order": [
        "1646759048a68a52af-0",
        "1646759048a68a52af-1",
        "1646759048a68a52af-2",
        "1646759048a68a52af-3",
        "228c5902-9197-40f3-a533-cb796bbdc792"
      ],
      "settings": {
        "heading": "More Bath Mats to Love",
        "subheading": "",
        "description": "Any bathroom is better with one of these bath mats beneath your feet.",
        "header_alignment": "center",
        "container": "container-fluid",
        "background_color": "#f8f8f8",
        "layout": "layout_1",
        "gap": 30,
        "use_scroll_mobile": false,
        "mobile_gap": 10,
        "custom_class": ""
      }
    },
    "product-recommendations": {
      "type": "product-recommendations",
      "settings": {
        "container": "container-fluid",
        "heading": "You Might Also Like",
        "limit": 4,
        "columns": 4,
        "column_gap": 50,
        "enable_slider": true
      }
    },
    "1639410395ef307599": {
      "type": "foxkit-related-product",
      "disabled": true,
      "settings": {
        "container": "container",
        "columns": 4,
        "column_gap": 30,
        "enable_slider": true
      }
    },
    "recent-viewed-products": {
      "type": "recent-viewed-products",
      "disabled": true,
      "settings": {
        "heading": "Recently Viewed Products",
        "container": "container",
        "columns": 4,
        "column_gap": 30,
        "enable_slider": true
      }
    },
    "1639147216cafdb126": {
      "type": "icon-box",
      "blocks": {
        "1639147216e881a99e-0": {
          "type": "iconbox",
          "settings": {
            "image": "shopify:\/\/shop_images\/free-shipping_3.png",
            "title": "Free Shipping",
            "description": "<p>On orders $750+<\/p>",
            "link": "",
            "button_label": "",
            "button_link": "",
            "button_style": "sf__btn-link",
            "button_size": ""
          }
        },
        "1639147216e881a99e-1": {
          "type": "iconbox",
          "settings": {
            "image": "shopify:\/\/shop_images\/glove.png",
            "title": "White Glove Delivery",
            "description": "<p>Add on for just $50<\/p>",
            "link": "",
            "button_label": "",
            "button_link": "",
            "button_style": "sf__btn-link",
            "button_size": ""
          }
        },
        "1639147216e881a99e-2": {
          "type": "iconbox",
          "settings": {
            "image": "shopify:\/\/shop_images\/living-room_f353f132-9f80-4ff1-801c-5e233eafc693.png",
            "title": "Enjoy Now, Pay Later",
            "description": "<p>Financing available<\/p>",
            "link": "",
            "button_label": "",
            "button_link": "",
            "button_style": "sf__btn-link",
            "button_size": ""
          }
        }
      },
      "block_order": [
        "1639147216e881a99e-0",
        "1639147216e881a99e-1",
        "1639147216e881a99e-2"
      ],
      "settings": {
        "heading": "",
        "subheading": "",
        "description": "",
        "header_alignment": "center",
        "container": "container-fluid",
        "background_color": "#f8f8f8",
        "item_per_row": 3,
        "item_gap": 12,
        "item_gap_mobile": 10,
        "card_style": "horizontal",
        "image_max_width": "60px",
        "content_alignment": "start",
        "hover_effect": "zoom-in",
        "enable_slider": false,
        "show_pagination": false,
        "show_navigation": false,
        "use_scroll_mobile": false,
        "use_grid_column_mb": false,
        "custom_class": ""
      }
    },
    "1644274445db71a91c": {
      "type": "apps",
      "disabled": true,
      "blocks": {
        "196ec884-688f-4fee-bc40-a7bf1463b461": {
          "type": "shopify:\/\/apps\/yotpo-product-reviews-photos\/blocks\/reviews\/eb7dfd7d-db44-4334-bc49-c893b51b36cf",
          "settings": {
            "product": "{{product}}"
          }
        }
      },
      "block_order": [
        "196ec884-688f-4fee-bc40-a7bf1463b461"
      ],
      "settings": {
        "heading": "",
        "subheading": "",
        "header_alignment": "center",
        "container": "container",
        "background_color": "",
        "custom_class": ""
      }
    }
  },
  "order": [
    "color_swatch",
    "breadcrumb",
    "main",
    "product-details-tabs",
    "1646759211901b06ae",
    "16385398106d128365",
    "1638538367f7bbd43b",
    "16476147633c350791",
    "1646759048cee3bb37",
    "product-recommendations",
    "1639410395ef307599",
    "recent-viewed-products",
    "1639147216cafdb126",
    "1644274445db71a91c"
  ]
}